{"failedCount":0,"prefixedPath":"src\/test\/resources\/getRequest.feature","packageQualifiedName":"src.test.resources.getRequest","loopIndex":-1,"relativePath":"src\/test\/resources\/getRequest.feature","scenarioResults":[{"sectionIndex":0,"stepResults":[{"result":{"nanos":152603400,"millis":152.6034,"status":"passed"},"step":{"line":3,"prefix":"Given","index":0,"text":"url 'https:\/\/reqres.in\/api\/users?page=2'"}},{"result":{"nanos":1053770900,"millis":1053.7709,"status":"passed"},"step":{"line":4,"prefix":"When","index":1,"text":"method get"},"stepLog":"20:43:43.128 request:\n1 > GET https:\/\/reqres.in\/api\/users?page=2\n1 > Host: reqres.in\n1 > Connection: Keep-Alive\n1 > User-Agent: Apache-HttpClient\/4.5.13 (Java\/11.0.24)\n1 > Accept-Encoding: gzip,deflate\n\n\n20:43:43.629 response time in milliseconds: 501\n1 < 200\n1 < Date: Wed, 02 Oct 2024 15:13:43 GMT\n1 < Content-Type: application\/json; charset=utf-8\n1 < Transfer-Encoding: chunked\n1 < Connection: keep-alive\n1 < Report-To: {\"group\":\"heroku-nel\",\"max_age\":3600,\"endpoints\":[{\"url\":\"https:\/\/nel.heroku.com\/reports?ts=1727664214&sid=c4c9725f-1ab0-44d8-820f-430df2718e11&s=xPAtZ5yunacXh1ZMiDnZyHyFlK%2FjqO7K6rZVpJDcJt8%3D\"}]}\n1 < Reporting-Endpoints: heroku-nel=https:\/\/nel.heroku.com\/reports?ts=1727664214&sid=c4c9725f-1ab0-44d8-820f-430df2718e11&s=xPAtZ5yunacXh1ZMiDnZyHyFlK%2FjqO7K6rZVpJDcJt8%3D\n1 < Nel: {\"report_to\":\"heroku-nel\",\"max_age\":3600,\"success_fraction\":0.005,\"failure_fraction\":0.05,\"response_headers\":[\"Via\"]}\n1 < X-Powered-By: Express\n1 < Access-Control-Allow-Origin: *\n1 < Etag: W\/\"406-ut0vzoCuidvyMf8arZpMpJ6ZRDw\"\n1 < Via: 1.1 vegur\n1 < Cache-Control: max-age=14400\n1 < CF-Cache-Status: HIT\n1 < Age: 855\n1 < Vary: Accept-Encoding\n1 < Server: cloudflare\n1 < CF-RAY: 8cc5a356ec894716-BOM\n{\"page\":2,\"per_page\":6,\"total\":12,\"total_pages\":2,\"data\":[{\"id\":7,\"email\":\"michael.lawson@reqres.in\",\"first_name\":\"Michael\",\"last_name\":\"Lawson\",\"avatar\":\"https:\/\/reqres.in\/img\/faces\/7-image.jpg\"},{\"id\":8,\"email\":\"lindsay.ferguson@reqres.in\",\"first_name\":\"Lindsay\",\"last_name\":\"Ferguson\",\"avatar\":\"https:\/\/reqres.in\/img\/faces\/8-image.jpg\"},{\"id\":9,\"email\":\"tobias.funke@reqres.in\",\"first_name\":\"Tobias\",\"last_name\":\"Funke\",\"avatar\":\"https:\/\/reqres.in\/img\/faces\/9-image.jpg\"},{\"id\":10,\"email\":\"byron.fields@reqres.in\",\"first_name\":\"Byron\",\"last_name\":\"Fields\",\"avatar\":\"https:\/\/reqres.in\/img\/faces\/10-image.jpg\"},{\"id\":11,\"email\":\"george.edwards@reqres.in\",\"first_name\":\"George\",\"last_name\":\"Edwards\",\"avatar\":\"https:\/\/reqres.in\/img\/faces\/11-image.jpg\"},{\"id\":12,\"email\":\"rachel.howell@reqres.in\",\"first_name\":\"Rachel\",\"last_name\":\"Howell\",\"avatar\":\"https:\/\/reqres.in\/img\/faces\/12-image.jpg\"}],\"support\":{\"url\":\"https:\/\/reqres.in\/#support-heading\",\"text\":\"To keep ReqRes free, contributions towards server costs are appreciated!\"}}\n"},{"result":{"nanos":31500,"millis":0.0315,"status":"passed"},"step":{"line":5,"prefix":"Then","index":2,"text":"status 200"}},{"result":{"nanos":89043500,"millis":89.0435,"status":"passed"},"step":{"line":6,"prefix":"And","index":3,"text":"print 'Tested'"},"stepLog":"20:43:43.753 [print] Tested \n"}],"executorName":"main","line":2,"name":"first Scenario file","description":"","durationMillis":1295.4493,"startTime":1727882022430,"failed":false,"refId":"[1:2]","endTime":1727882023753,"exampleIndex":-1}],"callDepth":0,"name":"first Feature File","description":"","resultDate":"2024-10-02 08:43:43 PM","durationMillis":1295.4493,"passedCount":1}