{"failedCount":1,"prefixedPath":"src\/test\/resources\/getRequest.feature","packageQualifiedName":"src.test.resources.getRequest","loopIndex":-1,"relativePath":"src\/test\/resources\/getRequest.feature","scenarioResults":[{"sectionIndex":0,"stepResults":[{"result":{"nanos":179139500,"millis":179.1395,"status":"passed"},"step":{"line":3,"prefix":"Given","index":0,"text":"url 'https:\/\/reqres.in\/api\/users?page=2'"}},{"result":{"nanos":1171552900,"millis":1171.5529,"status":"passed"},"step":{"line":4,"prefix":"When","index":1,"text":"method get"},"stepLog":"18:35:00.434 request:\n1 > GET https:\/\/reqres.in\/api\/users?page=2\n1 > Host: reqres.in\n1 > Connection: Keep-Alive\n1 > User-Agent: Apache-HttpClient\/4.5.13 (Java\/11.0.24)\n1 > Accept-Encoding: gzip,deflate\n\n\n18:35:00.953 response time in milliseconds: 519\n1 < 200\n1 < Date: Wed, 02 Oct 2024 13:05:00 GMT\n1 < Content-Type: application\/json; charset=utf-8\n1 < Transfer-Encoding: chunked\n1 < Connection: keep-alive\n1 < Report-To: {\"group\":\"heroku-nel\",\"max_age\":3600,\"endpoints\":[{\"url\":\"https:\/\/nel.heroku.com\/reports?ts=1727806097&sid=c4c9725f-1ab0-44d8-820f-430df2718e11&s=Ahbvb3pTYf4V%2FtZCMJB9Ky8AK8HRSNa2aG5qUYgXpxs%3D\"}]}\n1 < Reporting-Endpoints: heroku-nel=https:\/\/nel.heroku.com\/reports?ts=1727806097&sid=c4c9725f-1ab0-44d8-820f-430df2718e11&s=Ahbvb3pTYf4V%2FtZCMJB9Ky8AK8HRSNa2aG5qUYgXpxs%3D\n1 < Nel: {\"report_to\":\"heroku-nel\",\"max_age\":3600,\"success_fraction\":0.005,\"failure_fraction\":0.05,\"response_headers\":[\"Via\"]}\n1 < X-Powered-By: Express\n1 < Access-Control-Allow-Origin: *\n1 < Etag: W\/\"406-ut0vzoCuidvyMf8arZpMpJ6ZRDw\"\n1 < Via: 1.1 vegur\n1 < Cache-Control: max-age=14400\n1 < CF-Cache-Status: HIT\n1 < Age: 3265\n1 < Vary: Accept-Encoding\n1 < Server: cloudflare\n1 < CF-RAY: 8cc4e6cc6c9d3ab7-BOM\n{\"page\":2,\"per_page\":6,\"total\":12,\"total_pages\":2,\"data\":[{\"id\":7,\"email\":\"michael.lawson@reqres.in\",\"first_name\":\"Michael\",\"last_name\":\"Lawson\",\"avatar\":\"https:\/\/reqres.in\/img\/faces\/7-image.jpg\"},{\"id\":8,\"email\":\"lindsay.ferguson@reqres.in\",\"first_name\":\"Lindsay\",\"last_name\":\"Ferguson\",\"avatar\":\"https:\/\/reqres.in\/img\/faces\/8-image.jpg\"},{\"id\":9,\"email\":\"tobias.funke@reqres.in\",\"first_name\":\"Tobias\",\"last_name\":\"Funke\",\"avatar\":\"https:\/\/reqres.in\/img\/faces\/9-image.jpg\"},{\"id\":10,\"email\":\"byron.fields@reqres.in\",\"first_name\":\"Byron\",\"last_name\":\"Fields\",\"avatar\":\"https:\/\/reqres.in\/img\/faces\/10-image.jpg\"},{\"id\":11,\"email\":\"george.edwards@reqres.in\",\"first_name\":\"George\",\"last_name\":\"Edwards\",\"avatar\":\"https:\/\/reqres.in\/img\/faces\/11-image.jpg\"},{\"id\":12,\"email\":\"rachel.howell@reqres.in\",\"first_name\":\"Rachel\",\"last_name\":\"Howell\",\"avatar\":\"https:\/\/reqres.in\/img\/faces\/12-image.jpg\"}],\"support\":{\"url\":\"https:\/\/reqres.in\/#support-heading\",\"text\":\"To keep ReqRes free, contributions towards server costs are appreciated!\"}}\n"},{"result":{"nanos":39700,"millis":0.0397,"status":"passed"},"step":{"line":5,"prefix":"Then","index":2,"text":"status 200"}},{"result":{"nanos":53958000,"errorMessage":"js failed:\n>>>>\n01: karate.log('[print]',Tested)\n<<<<\norg.graalvm.polyglot.PolyglotException: ReferenceError: \"Tested\" is not defined\n- <js>.:program(Unnamed:1)\n\nsrc\/test\/resources\/getRequest.feature:6","millis":53.958,"status":"failed"},"step":{"line":6,"prefix":"And","index":3,"text":"print Tested"},"stepLog":"18:35:01.047 src\/test\/resources\/getRequest.feature:6\nAnd print Tested\njs failed:\n>>>>\n01: karate.log('[print]',Tested)\n<<<<\norg.graalvm.polyglot.PolyglotException: ReferenceError: \"Tested\" is not defined\n- <js>.:program(Unnamed:1)\n\nsrc\/test\/resources\/getRequest.feature:6\n"}],"line":2,"description":"","durationMillis":1404.6901,"failed":true,"error":"js failed:\n>>>>\n01: karate.log('[print]',Tested)\n<<<<\norg.graalvm.polyglot.PolyglotException: ReferenceError: \"Tested\" is not defined\n- <js>.:program(Unnamed:1)\n\nsrc\/test\/resources\/getRequest.feature:6","executorName":"main","name":"first Scenario file","startTime":1727874299619,"refId":"[1:2]","endTime":1727874301047,"exampleIndex":-1}],"callDepth":0,"name":"first Feature File","description":"","resultDate":"2024-10-02 06:35:01 PM","durationMillis":1404.6901,"passedCount":0}